[gd_scene load_steps=4 format=2]

[ext_resource path="res://Assets/Hostiles/TweenTurret.gd" type="Script" id=1]

[sub_resource type="SpatialMaterial" id=1]
albedo_color = Color( 0.32549, 1, 0.164706, 1 )

[sub_resource type="SpatialMaterial" id=2]
albedo_color = Color( 0.298039, 0.247059, 0.247059, 1 )

[node name="TweenTurret" type="Spatial"]
script = ExtResource( 1 )

[node name="Visual" type="CSGCombiner" parent="."]

[node name="CSGBox" type="CSGBox" parent="Visual"]
transform = Transform( 1, 0, 0, 0, 1, 0, 0, 0, 1, 0, 0, -0.35 )
width = 0.3
height = 0.1
depth = 0.5
material = SubResource( 1 )

[node name="SpotLight" type="SpotLight" parent="Visual/CSGBox"]
transform = Transform( 1, 0, 0, 0, 1, 0, 0, 0, 1, 0, 0, -0.35 )
light_color = Color( 0, 0.25098, 0.00392157, 1 )
spot_range = 60.0
spot_angle = 5.0

[node name="CSGBox2" type="CSGBox" parent="Visual"]
width = 0.1
height = 0.1
depth = 0.1
material = SubResource( 2 )

[node name="AimPoint" type="Position3D" parent="."]
transform = Transform( 1, 0, 0, 0, 1, 0, 0, 0, 1, 0, 0, -4 )

[node name="TweenNode" type="Tween" parent="."]
playback_process_mode = 0
