[gd_scene load_steps=4 format=2]

[sub_resource type="ParticlesMaterial" id=1]
emission_shape = 1
emission_sphere_radius = 1.0
angular_velocity = 0.125564
color = Color( 1, 0.639216, 0.254902, 1 )

[sub_resource type="SpatialMaterial" id=2]
albedo_color = Color( 1, 0.627451, 0.152941, 1 )
roughness = 0.0

[sub_resource type="SphereMesh" id=3]
material = SubResource( 2 )
radius = 0.5
height = 1.0
radial_segments = 4
rings = 2

[node name="Explosion" type="Particles"]
emitting = false
one_shot = true
local_coords = false
process_material = SubResource( 1 )
draw_pass_1 = SubResource( 3 )
