[gd_scene load_steps=3 format=2]

[sub_resource type="SpatialMaterial" id=1]
albedo_color = Color( 0.32549, 1, 0.164706, 1 )
emission_enabled = true
emission = Color( 0.32549, 1, 0.164706, 1 )
emission_energy = 1.0
emission_operator = 0
emission_on_uv2 = false

[sub_resource type="CapsuleShape" id=2]
radius = 0.05
height = 0.5

[node name="Glowstick" type="RigidBody"]
transform = Transform( 1, 0, 0, 0, -4.37114e-08, -1, 0, 1, -4.37114e-08, 0, 0, 0 )
collision_layer = 2

[node name="GlowstickModel" type="CSGCylinder" parent="."]
radius = 0.05
height = 0.6
material = SubResource( 1 )

[node name="CollisionShape" type="CollisionShape" parent="."]
transform = Transform( 1, 0, 0, 0, -4.37114e-08, -1, 0, 1, -4.37114e-08, 0, 0, 0 )
shape = SubResource( 2 )

[node name="OmniLight" type="OmniLight" parent="."]
light_color = Color( 0.32549, 1, 0.164706, 1 )
light_energy = 3.0
shadow_enabled = true
omni_range = 75.0
omni_attenuation = 1.46409
