[gd_scene load_steps=2 format=2]

[ext_resource path="res://Scripts/VisualPerceptionTest/TestCameraScript.gd" type="Script" id=1]

[node name="PerceptionTestCamera" type="Camera"]
transform = Transform( 1, 0, 0, 0, 1, 0, 0, 0, 1, 0, 3, 3 )
fov = 90.0
far = 1000.0
script = ExtResource( 1 )
