[gd_scene load_steps=3 format=2]

[ext_resource path="res://Assets/PCG/LandscapeMesh.gd" type="Script" id=1]

[sub_resource type="HeightMapShape" id=1]

[node name="Landscape" type="Spatial"]

[node name="LandscapeMesh" type="MeshInstance" parent="."]
transform = Transform( -1, 3.25841e-07, 0, -3.25841e-07, -1, 0, 0, 0, 1, 0, 0, 0 )
script = ExtResource( 1 )

[node name="CollisionArea" type="StaticBody" parent="LandscapeMesh"]

[node name="CollisionZone" type="CollisionShape" parent="LandscapeMesh/CollisionArea"]
shape = SubResource( 1 )
